{
  "$schema": "https://schema.management.azure.com/schemas/2019-04-01/deploymentTemplate.json#",
  "contentVersion": "1.0.0.0",
  "variables":
  {
    "vmName": "puppet",
    "location": "EastUS",
    "vmSize": "Standard_D2_v3",
    "adminUsername": "serveradmin",
    "adminPassword": "Sasukeistheworst12345!",
    "publicIPAddressName": "puppet-publicIP",
    "ip_location": "EastUS",
    "networkSecurityGroupName": "puppet-NSG",
    "addressPrefix": "10.0.0.0/16",
    "subnetName": "Subnet",
    "subnetPrefix": "10.0.0.0/24",
    "virtualNetworkName": "puppet-network",
    "nicName": "puppet-nic",
    "subnetRef": "[resourceId('Microsoft.Network/virtualNetworks/subnets', variables('virtualNetworkName'), variables('subnetName'))]",
    "privateDnsZones_name": "galaxywhale.com",
    "customData": "[concat('#include\n', 'https://gitlab.com/uzu839/arm_templates/-/raw/master/azure_puppet_cloud_init.txt')]"
  },
  "resources": [
    {"type": "Microsoft.Network/publicIPAddresses",
     "apiVersion": "2018-11-01",
     "name": "[variables('publicIPAddressName')]",
     "location": "[variables('location')]",
     "properties": {
       "publicIPAllocationMethod": "Dynamic"
      }
    },
    {"type": "Microsoft.Network/privateDnsZones",
     "name": "[variables('privateDnsZones_name')]",
     "apiVersion": "2018-09-01",
     "location": "global",
     "properties": {}
    },
    {"type": "Microsoft.Network/privateDnsZones/virtualNetworkLinks",
     "apiVersion": "2018-09-01",
     "name": "[concat(variables('privateDnsZones_name'), '/puppet_link')]",
     "location": "global",
     "dependsOn": [
       "[resourceId('Microsoft.Network/privateDnsZones', variables('privateDnsZones_name'))]"
     ],
     "properties": {
         "registrationEnabled": true,
         "virtualNetwork": {
            "id": "[resourceId('Microsoft.Network/virtualNetworks', variables('virtualNetworkName'))]"
          }
        }
    },
    {"type": "Microsoft.Network/virtualNetworks",
     "apiVersion": "2018-11-01",
     "name": "[variables('virtualNetworkName')]",
     "location": "[variables('location')]",
     "dependsON": [
       "[resourceId('Microsoft.Network/networkSecurityGroups', variables('networkSecurityGroupName'))]",
       "[resourceId('Microsoft.Network/privateDnsZones', variables('privateDnsZones_name'))]"
     ],
     "properties": {
       "addressSpace": {
         "addressPrefixes": [
           "[variables('addressPrefix')]"
         ]
       },
       "subnets": [
         {
           "name": "[variables('subnetName')]",
           "properties": {
             "addressPrefix": "[variables('subnetPrefix')]",
             "networkSecurityGroup": {
               "id": "[resourceId('Microsoft.Network/networkSecurityGroups', variables('networkSecurityGroupName'))]"
             }
           }
         }
       ]
     }
    },
    {"type": "Microsoft.Network/networkSecurityGroups",
     "apiVersion": "2019-08-01",
     "name": "[variables('networkSecurityGroupName')]",
     "location": "[variables('ip_location')]",
     "properties": {
       "securityRules": [
         {
           "name": "default-allow-22",
           "properties": {
             "priority": 1000,
             "access": "allow",
             "direction": "Inbound",
             "destinationPortRange": "22",
             "protocol": "TCP",
             "sourcePortRange": "*",
             "sourceAddressPrefix": "*",
             "destinationAddressPrefix": "*"
           }
         },
         {
           "name": "allow-8140",
           "properties": {
             "priority": 300,
             "access": "allow",
             "direction": "Inbound",
             "destinationPortRange": "8140",
             "protocol": "TCP",
             "sourcePortRange": "*",
             "sourceAddressPrefix": "*",
             "destinationAddressPrefix": "*"
           }
         },
         {
           "name": "allow-61613",
           "properties": {
             "priority": 301,
             "access": "allow",
             "direction": "Inbound",
             "destinationPortRange": "61613",
             "protocol": "TCP",
             "sourcePortRange": "*",
             "sourceAddressPrefix": "*",
             "destinationAddressPrefix": "*"
           }
         },
         {
           "name": "allow-8142",
           "properties": {
             "priority": 302,
             "access": "allow",
             "direction": "Inbound",
             "destinationPortRange": "8142",
             "protocol": "TCP",
             "sourcePortRange": "*",
             "sourceAddressPrefix": "*",
             "destinationAddressPrefix": "*"
           }
         },
         {
           "name": "allow-443",
           "properties": {
             "priority": 303,
             "access": "allow",
             "direction": "Inbound",
             "destinationPortRange": "443",
             "protocol": "TCP",
             "sourcePortRange": "*",
             "sourceAddressPrefix": "*",
             "destinationAddressPrefix": "*"
           }
         },
         {
           "name": "allow-8443",
           "properties": {
             "priority": 304,
             "access": "allow",
             "direction": "Inbound",
             "destinationPortRange": "8443",
             "protocol": "TCP",
             "sourcePortRange": "*",
             "sourceAddressPrefix": "*",
             "destinationAddressPrefix": "*"
           }
         },
         {
           "name": "allow-80",
           "properties": {
             "priority": 305,
             "access": "allow",
             "direction": "Inbound",
             "destinationPortRange": "80",
             "protocol": "TCP",
             "sourcePortRange": "*",
             "sourceAddressPrefix": "*",
             "destinationAddressPrefix": "*"
           }
         },
         {
           "name": "allow-3000",
           "properties": {
             "priority": 306,
             "access": "allow",
             "direction": "Inbound",
             "destinationPortRange": "3000",
             "protocol": "TCP",
             "sourcePortRange": "*",
             "sourceAddressPrefix": "*",
             "destinationAddressPrefix": "*"
           }
         }
       ]
     }
    },
    {"type": "Microsoft.Network/networkInterfaces",
     "apiVersion": "2018-11-01",
     "name": "[variables('nicName')]",
     "location": "[variables('location')]",
     "dependsON": [
       "[resourceId('Microsoft.Network/publicIPAddresses/', variables('publicIPAddressName'))]",
      "[resourceId('Microsoft.Network/virtualNetworks/', variables('virtualNetworkName'))]"
      ],
     "properties": {
       "ipConfigurations": [
         {
           "name": "ipconfig1",
           "properties": {
             "privateIPAllocationMethod": "Dynamic",
             "publicIPAddress": {
                "id": "[resourceId('Microsoft.Network/publicIPAddresses',variables('publicIPAddressName'))]"
             },
            "subnet": {
              "id": "[variables('subnetRef')]"
            }
          }
         }
       ]
      }
    },
    {"type": "Microsoft.Compute/virtualMachines",
      "apiVersion": "2018-10-01",
      "name": "[variables('vmName')]",
      "location": "[variables('location')]",
      "dependsON":[
        "[resourceId('Microsoft.Network/networkInterfaces/', variables('nicName'))]"
      ],
      "properties": {
        "hardwareProfile": {
          "vmSize": "[variables('vmSize')]"
        },
        "osProfile": {
          "computerName": "[variables('vmName')]",
          "adminUsername": "[variables('adminUsername')]",
          "adminPassword": "[variables('adminPassword')]",
          "customData": "[base64(variables('customData'))]"
        },
        "storageProfile": {
          "imageReference": {
            "publisher": "OpenLogic",
            "offer": "CentOS",
            "sku": "7.7",
            "version": "latest"
          },
        "osDisk": {
          "createOption": "FromImage"
         },
        "dataDisks": [
          {
            "diskSizeGB": 1023,
            "lun": 0,
            "createOption": "Empty"
           }
          ]
        },
        "networkProfile": {
          "networkInterfaces": [
            {
              "id": "[resourceId('Microsoft.Network/networkInterfaces',variables('nicName'))]"
            }
          ]
         }
        }
      }
  ]
}
